…
sunpath <-
  read_csv("/tmp/sunpositions.csv", show_col_types = FALSE) |>
  mutate(
    date = date(dateTime),
    time = hour(dateTime) + minute(dateTime) / 60,
    azimuth = NULL,
    daytime = NULL
  )

sunpath
```

```
## # A tibble: 175,200 × 10
##    latitude longitude elevation pressure temperature dateTime            deltaT
##       <dbl>     <dbl>     <dbl>    <dbl>       <dbl> <dttm>               <dbl>
##  1     65.0      25.5         0     1013          15 2025-01-01 00:00:00   71.7
##  2     65.0      25.5         0     1013          15 2025-01-01 00:03:00   71.7
##  3     65.0      25.5         0     1013          15 2025-01-01 00:06:00   71.7
##  4     65.0      25.5         0     1013          15 2025-01-01 00:09:00   71.7
##  5     65.0      25.5         0     1013          15 2025-01-01 00:12:00   71.7
##  6     65.0      25.5         0     1013          15 2025-01-01 00:15:00   71.7
##  7     65.0      25.5         0     1013          15 2025-01-01 00:18:00   71.7
##  8     65.0      25.5         0     1013          15 2025-01-01 00:21:00   71.7
##  9     65.0      25.5         0     1013          15 2025-01-01 00:24:00   71.7
## 10     65.0      25.5         0     1013          15 2025-01-01 00:27:00   71.7
## # ℹ 175,190 more rows
## # ℹ 3 more variables: zenith <dbl>, date <date>, time <dbl>
```
…
sunpath
```

```
## # A tibble: 175,200 × 11
##    latitude longitude elevation pressure temperature dateTime            deltaT
##       <dbl>     <dbl>     <dbl>    <dbl>       <dbl> <dttm>               <dbl>
##  1     65.0      25.5         0     1013          15 2025-01-01 00:00:00   71.7
##  2     65.0      25.5         0     1013          15 2025-01-01 00:03:00   71.7
##  3     65.0      25.5         0     1013          15 2025-01-01 00:06:00   71.7
##  4     65.0      25.5         0     1013          15 2025-01-01 00:09:00   71.7
##  5     65.0      25.5         0     1013          15 2025-01-01 00:12:00   71.7
##  6     65.0      25.5         0     1013          15 2025-01-01 00:15:00   71.7
##  7     65.0      25.5         0     1013          15 2025-01-01 00:18:00   71.7
##  8     65.0      25.5         0     1013          15 2025-01-01 00:21:00   71.7
##  9     65.0      25.5         0     1013          15 2025-01-01 00:24:00   71.7
## 10     65.0      25.5         0     1013          15 2025-01-01 00:27:00   71.7
## # ℹ 175,190 more rows
## # ℹ 4 more variables: zenith <dbl>, date <date>, time <dbl>, light <fct>
```
…
