…
```
## Unique hours in data: 0 1 2 3 4 5 6 7 8 9 10 11 12 13 14 15 16 17 18 19 20 21 22 23
```

``` r
time_data <- time_data |>
  filter(hour >= 6, hour <= 18, !is.na(elevation)) %>%
  arrange(hour, latitude, longitude)

time_data
```

```
## # A tibble: 8,294 × 10
##    latitude longitude pressure temperature dateTime            deltaT azimuth
##       <dbl>     <dbl>    <dbl>       <dbl> <dttm>               <dbl>   <dbl>
##  1       32       -13     1013          15 2027-06-21 06:00:00      0    63.2
##  2       32       -11     1013          15 2027-06-21 06:00:00      0    64.3
##  3       32        -9     1013          15 2027-06-21 06:00:00      0    65.3
##  4       32        -7     1013          15 2027-06-21 06:00:00      0    66.3
##  5       32        -5     1013          15 2027-06-21 06:00:00      0    67.2
##  6       32        -3     1013          15 2027-06-21 06:00:00      0    68.2
##  7       32        -1     1013          15 2027-06-21 06:00:00      0    69.1
##  8       32         1     1013          15 2027-06-21 06:00:00      0    70.1
##  9       32         3     1013          15 2027-06-21 06:00:00      0    71.0
## 10       32         5     1013          15 2027-06-21 06:00:00      0    71.9
## # ℹ 8,284 more rows
## # ℹ 3 more variables: elevation <dbl>, datetime_parsed <dttm>, hour <int>
```
…
