…
sunpath <- read_csv("/tmp/sunpositions.csv",
  show_col_types = FALSE
) |>
  filter(day(dateTime) == 21) |>
  filter(zenith <= 90.0) |>
  mutate(month = month(dateTime, label = TRUE))

sunpath
```

```
## # A tibble: 876 × 10
##    latitude longitude elevation pressure temperature dateTime            deltaT
##       <dbl>     <dbl>     <dbl>    <dbl>       <dbl> <dttm>               <dbl>
##  1     47.8      13.0         0     1013          15 2030-01-21 06:50:00   74.0
##  2     47.8      13.0         0     1013          15 2030-01-21 07:00:00   74.0
##  3     47.8      13.0         0     1013          15 2030-01-21 07:10:00   74.0
##  4     47.8      13.0         0     1013          15 2030-01-21 07:20:00   74.0
##  5     47.8      13.0         0     1013          15 2030-01-21 07:30:00   74.0
##  6     47.8      13.0         0     1013          15 2030-01-21 07:40:00   74.0
##  7     47.8      13.0         0     1013          15 2030-01-21 07:50:00   74.0
##  8     47.8      13.0         0     1013          15 2030-01-21 08:00:00   74.0
##  9     47.8      13.0         0     1013          15 2030-01-21 08:10:00   74.0
## 10     47.8      13.0         0     1013          15 2030-01-21 08:20:00   74.0
## # ℹ 866 more rows
## # ℹ 3 more variables: azimuth <dbl>, zenith <dbl>, month <ord>
```
…
